<svg width="9" height="18" viewBox="0 0 9 18" fill="none" xmlns="http://www.w3.org/2000/svg">
<path fill-rule="evenodd" clip-rule="evenodd" d="M0.389337 17.3631C0.16026 17.1006 0.0315905 16.7446 0.0315905 16.3735C0.0315905 16.0024 0.16026 15.6464 0.389337 15.3838L6.04895 8.90442L0.389337 2.42501C0.269153 2.2968 0.172755 2.14219 0.105897 1.9704C0.0390387 1.79861 0.003088 1.61317 0.000190735 1.42513C-0.00270748 1.23709 0.0275068 1.05031 0.0890303 0.875931C0.150554 0.701551 0.242126 0.543142 0.358285 0.410158C0.474443 0.277174 0.612808 0.172337 0.765125 0.1019C0.917442 0.0314655 1.08059 -0.00312233 1.24484 0.00019455C1.40909 0.00351143 1.57107 0.0446682 1.72112 0.121212C1.87117 0.197754 2.00622 0.308113 2.11821 0.445705L8.64225 7.91477C8.87133 8.17736 9 8.5333 9 8.90442C9 9.27554 8.87133 9.63149 8.64225 9.89407L2.11821 17.3631C1.88885 17.6254 1.57794 17.7727 1.25377 17.7727C0.929607 17.7727 0.618698 17.6254 0.389337 17.3631Z" fill="#4B4B4B"/>
</svg>
