<svg width="46" height="45" viewBox="0 0 46 45" fill="none" xmlns="http://www.w3.org/2000/svg">
<circle cx="23" cy="22.4998" r="22.5" fill="#FFF0D9"/>
<g clip-path="url(#clip0_169_988)">
<path d="M20.6154 9.96155C19.0337 9.96155 17.7308 11.2644 17.7308 12.8462V14.7692H19.6538V12.8462C19.6538 12.3048 20.074 11.8846 20.6154 11.8846H26.3846C26.926 11.8846 27.3462 12.3048 27.3462 12.8462V14.7692H29.2692V12.8462C29.2692 11.2644 27.9663 9.96155 26.3846 9.96155H20.6154ZM13.8846 15.7308C13.1196 15.7308 12.3859 16.0347 11.8449 16.5757C11.3039 17.1166 11 17.8503 11 18.6154V30.1539C11 30.9189 11.3039 31.6526 11.8449 32.1936C12.3859 32.7346 13.1196 33.0385 13.8846 33.0385H33.1154C34.7077 33.0385 36 31.7462 36 30.1539V18.6154C36 17.8503 35.6961 17.1166 35.1551 16.5757C34.6141 16.0347 33.8804 15.7308 33.1154 15.7308H13.8846ZM23.5 18.525C24.2697 18.5244 25.0319 18.6755 25.7431 18.9698C26.4543 19.264 27.1005 19.6956 27.6448 20.2398C28.189 20.7841 28.6206 21.4303 28.9149 22.1415C29.2091 22.8527 29.3602 23.615 29.3596 24.3846C29.3602 25.1543 29.2091 25.9165 28.9149 26.6278C28.6206 27.339 28.189 27.9852 27.6448 28.5294C27.1005 29.0736 26.4543 29.5052 25.7431 29.7995C25.0319 30.0937 24.2697 30.2449 23.5 30.2442C22.7303 30.2449 21.9681 30.0937 21.2569 29.7995C20.5457 29.5052 19.8995 29.0736 19.3552 28.5294C18.811 27.9852 18.3794 27.339 18.0851 26.6278C17.7909 25.9165 17.6398 25.1543 17.6404 24.3846C17.6398 23.615 17.7909 22.8527 18.0851 22.1415C18.3794 21.4303 18.811 20.7841 19.3552 20.2398C19.8995 19.6956 20.5457 19.264 21.2569 18.9698C21.9681 18.6755 22.7303 18.5244 23.5 18.525ZM22.5385 21.5V23.4231H20.6154V25.3462H22.5385V27.2692H24.4615V25.3462H26.3846V23.4231H24.4615V21.5H22.5385Z" fill="#E80D0D"/>
</g>
<defs>
<clipPath id="clip0_169_988">
<rect width="25" height="25" fill="white" transform="translate(11 9)"/>
</clipPath>
</defs>
</svg>
