<svg width="46" height="45" viewBox="0 0 46 45" fill="none" xmlns="http://www.w3.org/2000/svg">
<circle cx="22.9995" cy="22.5" r="22.5" fill="#FFE8B9"/>
<g clip-path="url(#clip0_238_3634)">
<path d="M30.0615 22.2141C27.0591 22.2141 24.6253 24.8436 24.6253 28.0872C24.6253 31.3309 27.0591 33.9603 30.0615 33.9603C33.0638 33.9603 35.4977 31.3308 35.4977 28.0872C35.4977 24.8436 33.0638 22.2141 30.0615 22.2141ZM15.9376 22.2147C12.9354 22.2147 10.5015 24.8436 10.5015 28.0872C10.5015 31.3309 12.9354 33.9603 15.9376 33.9603C18.9401 33.9603 21.3741 31.3308 21.3741 28.0872C21.3741 24.8436 18.9401 22.2147 15.9376 22.2147ZM28.4357 14.8729C28.4357 18.1166 26.0018 20.7463 22.9997 20.7463C19.9972 20.7463 17.5634 18.1166 17.5634 14.8729C17.5634 11.6295 19.9971 9 22.9996 9C26.0017 9 28.4356 11.6297 28.4356 14.8728L28.4357 14.8729Z" fill="#F5B020"/>
</g>
<defs>
<clipPath id="clip0_238_3634">
<rect width="25" height="25" fill="white" transform="translate(10.4995 9)"/>
</clipPath>
</defs>
</svg>
