<svg width="12" height="13" viewBox="0 0 12 13" fill="none" xmlns="http://www.w3.org/2000/svg">
<path d="M2.43933 12.342C2.07438 12.342 1.76186 12.2121 1.50176 11.9522C1.24165 11.6923 1.11182 11.3802 1.11226 11.016V2.39636H0.44873V1.07027H3.76639V0.407227H7.74759V1.07027H11.0652V2.39636H10.4017V11.016C10.4017 11.3806 10.2717 11.6929 10.0116 11.9528C9.75145 12.2127 9.43915 12.3425 9.07465 12.342H2.43933ZM9.07465 2.39636H2.43933V11.016H9.07465V2.39636ZM3.76639 9.68986H5.09346V3.72245H3.76639V9.68986ZM6.42052 9.68986H7.74759V3.72245H6.42052V9.68986Z" fill="#2131BA"/>
</svg>
