<svg width="10" height="10" viewBox="0 0 10 10" fill="none" xmlns="http://www.w3.org/2000/svg">
<path d="M8.99595 3.64609L6.87095 1.54609L7.57095 0.846094C7.76261 0.654427 7.99811 0.558594 8.27745 0.558594C8.55678 0.558594 8.79211 0.654427 8.98345 0.846094L9.68345 1.54609C9.87511 1.73776 9.97511 1.96909 9.98345 2.24009C9.99178 2.51109 9.90011 2.74226 9.70845 2.93359L8.99595 3.64609ZM8.27095 4.38359L2.97095 9.68359H0.845947V7.55859L6.14595 2.25859L8.27095 4.38359Z" fill="white"/>
</svg>
